﻿DIDI,DiDi Global Inc.
CCMP,CMC Materials Inc. Common Stock
AMD,"Advanced Micro Devices, Inc."
NIO,NIO Inc.
TLRY,"Tilray Brands, Inc."
AAPL,Apple Inc.
TELL,Tellurian Inc.
AMC,"AMC Entertainment Holdings, Inc."
F,Ford Motor Company
BAC,Bank of America Corporation
BABA,Alibaba Group Holding Limited
NVDA,NVIDIA Corporation
INTC,Intel Corporation
ITUB,Itaú Unibanco Holding S.A.
T,AT&T Inc.
C,Citigroup Inc.
MU,"Micron Technology, Inc."
IQ,"iQIYI, Inc."
VZ,Verizon Communications Inc.
BBD,Banco Bradesco S.A.
WFC,Wells Fargo & Company
SOFI,"SoFi Technologies, Inc."
SWN,Southwestern Energy Company
BEKE,KE Holdings Inc.
PDD,Pinduoduo Inc.
VALE,Vale S.A.
CCL,Carnival Corporation & plc
PBR,Petróleo Brasileiro S.A. - Petrobras
NLY,"Annaly Capital Management, Inc."
MSFT,Microsoft Corporation
KOS,Kosmos Energy Ltd.
SNAP,Snap Inc.
AAL,American Airlines Group Inc.
BCS,Barclays PLC
MTDR,Matador Resources Company
PLTR,Palantir Technologies Inc.
DNA,"Ginkgo Bioworks Holdings, Inc."
ABEV,Ambev S.A.
CPT,Camden Property Trust
BB,BlackBerry Limited
CSX,CSX Corporation
OXY,Occidental Petroleum Corporation
AUY,Yamana Gold Inc.
HPQ,HP Inc.
CDEV,"Centennial Resource Development, Inc."
TME,Tencent Music Entertainment Group
ET,Energy Transfer LP
QCOM,QUALCOMM Incorporated
HOOD,"Robinhood Markets, Inc."
FB,"Meta Platforms, Inc."
PFE,Pfizer Inc.
PATH,UiPath Inc.
XOM,Exxon Mobil Corporation
TSLA,"Tesla, Inc."
NOK,Nokia Oyj
CSCO,"Cisco Systems, Inc."
BILI,Bilibili Inc.
LCID,"Lucid Group, Inc."
TAL,TAL Education Group
EDU,New Oriental Education & Technology Group Inc.
CLF,Cleveland-Cliffs Inc.
UBER,"Uber Technologies, Inc."
GM,General Motors Company
RIG,Transocean Ltd.
FCX,Freeport-McMoRan Inc.
DKNG,DraftKings Inc.
M,Macy's Inc.
GRAB,Grab Holdings Limited
RBLX,Roblox Corporation
JPM,JPMorgan Chase & Co.
JD,"JD.com, Inc."
GOLD,Barrick Gold Corporation
PLUG,Plug Power Inc.
RIVN,"Rivian Automotive, Inc."
SQ,"Block, Inc."
UMC,United Microelectronics Corporation
VIV,Telefônica Brasil S.A.
CMCSA,Comcast Corporation
WBA,"Walgreens Boots Alliance, Inc."
XPEV,XPeng Inc.
INFY,Infosys Limited
NLSN,Nielsen Holdings plc
KEY,KeyCorp
VIPS,Vipshop Holdings Limited
CGC,Canopy Growth Corporation
NCLH,Norwegian Cruise Line Holdings Ltd.
ERIC,Telefonaktiebolaget LM Ericsson (publ)
MRO,Marathon Oil Corporation
GME,GameStop Corp.
KMI,"Kinder Morgan, Inc."
NKLA,Nikola Corporation
PCG,PG&E Corporation
FCEL,"FuelCell Energy, Inc."
X,United States Steel Corporation
PBR-A,Petróleo Brasileiro S.A. - Petrobras
KO,The Coca-Cola Company
BMY,Bristol-Myers Squibb Company
HBAN,Huntington Bancshares Incorporated
KGC,Kinross Gold Corporation
SIRI,Sirius XM Holdings Inc.