<svg width="734" height="558" viewBox="0 0 734 558" fill="none" xmlns="http://www.w3.org/2000/svg">
<rect width="734" height="558" rx="20" fill="white"/>
<path d="M704 73.2128V205.902" stroke="#5046BB" stroke-width="0.7903" stroke-miterlimit="10"/>
<path d="M704 114.374V174.784" stroke="#5046BB" stroke-width="6.3222" stroke-miterlimit="10"/>
<path d="M682.953 95.6744V228.363" stroke="#FB896B" stroke-width="0.7903" stroke-miterlimit="10"/>
<path d="M682.953 157.417V197.246" stroke="#FB896B" stroke-width="6.3222" stroke-miterlimit="10"/>
<path d="M661.904 107.34V240.029" stroke="#5046BB" stroke-width="0.7903" stroke-miterlimit="10"/>
<path d="M661.904 174.958V237.221" stroke="#5046BB" stroke-width="6.3222" stroke-miterlimit="10"/>
<path d="M640.837 100.77V233.459" stroke="#FB896B" stroke-width="0.7903" stroke-miterlimit="10"/>
<path d="M640.837 120.164V202.342" stroke="#FB896B" stroke-width="6.3222" stroke-miterlimit="10"/>
<path d="M619.787 146.186V245.703" stroke="#5046BB" stroke-width="0.7903" stroke-miterlimit="10"/>
<path d="M619.787 171.861V215.772" stroke="#5046BB" stroke-width="6.3222" stroke-miterlimit="10"/>
<path d="M598.741 160.456V278.875" stroke="#FB896B" stroke-width="0.7903" stroke-miterlimit="10"/>
<path d="M598.741 191.603V262.028" stroke="#FB896B" stroke-width="6.3222" stroke-miterlimit="10"/>
<path d="M577.67 139.558V242.635" stroke="#5046BB" stroke-width="0.7903" stroke-miterlimit="10"/>
<path d="M577.67 163.699V222.228" stroke="#5046BB" stroke-width="6.3222" stroke-miterlimit="10"/>
<path d="M556.624 98.1942V221.707" stroke="#FB896B" stroke-width="0.7903" stroke-miterlimit="10"/>
<path d="M556.624 122.19V199.766" stroke="#FB896B" stroke-width="6.3222" stroke-miterlimit="10"/>
<path d="M535.577 156.607V254.619" stroke="#5046BB" stroke-width="0.7903" stroke-miterlimit="10"/>
<path d="M535.577 180.082V227.554" stroke="#5046BB" stroke-width="6.3222" stroke-miterlimit="10"/>
<path d="M514.507 196.725V295.228" stroke="#FB896B" stroke-width="0.7903" stroke-miterlimit="10"/>
<path d="M514.507 227.841V264.082" stroke="#FB896B" stroke-width="6.3222" stroke-miterlimit="10"/>
<path d="M493.461 171.194V271.753" stroke="#5046BB" stroke-width="0.7903" stroke-miterlimit="10"/>
<path d="M493.461 202.34V240.26" stroke="#5046BB" stroke-width="6.3222" stroke-miterlimit="10"/>
<path d="M472.414 196.725V318.703" stroke="#FB896B" stroke-width="0.7903" stroke-miterlimit="10"/>
<path d="M472.414 227.841V298.296" stroke="#FB896B" stroke-width="6.3222" stroke-miterlimit="10"/>
<path d="M451.344 196.725V281.189" stroke="#5046BB" stroke-width="0.7903" stroke-miterlimit="10"/>
<path d="M451.344 227.841V262.229" stroke="#5046BB" stroke-width="6.3222" stroke-miterlimit="10"/>
<path d="M430.297 183.44V271.754" stroke="#FB896B" stroke-width="0.7903" stroke-miterlimit="10"/>
<path d="M430.297 214.586V240.261" stroke="#FB896B" stroke-width="6.3222" stroke-miterlimit="10"/>
<path d="M409.228 196.725V365.654" stroke="#5046BB" stroke-width="0.7903" stroke-miterlimit="10"/>
<path d="M409.228 227.841V347.273" stroke="#5046BB" stroke-width="6.3222" stroke-miterlimit="10"/>
<path d="M388.181 244.197V376.885" stroke="#FB896B" stroke-width="0.7903" stroke-miterlimit="10"/>
<path d="M388.181 275.314V345.739" stroke="#FB896B" stroke-width="6.3222" stroke-miterlimit="10"/>
<path d="M367.134 249.812V400.882" stroke="#5046BB" stroke-width="0.7903" stroke-miterlimit="10"/>
<path d="M367.134 278.382V369.736" stroke="#5046BB" stroke-width="6.3222" stroke-miterlimit="10"/>
<path d="M346.066 336.565V459.064" stroke="#FB896B" stroke-width="0.7903" stroke-miterlimit="10"/>
<path d="M346.066 357.492V427.918" stroke="#FB896B" stroke-width="6.3222" stroke-miterlimit="10"/>
<path d="M325.018 218.55V351.239" stroke="#5046BB" stroke-width="0.7903" stroke-miterlimit="10"/>
<path d="M325.018 249.667V336.448" stroke="#5046BB" stroke-width="6.3222" stroke-miterlimit="10"/>
<path d="M303.97 229.377V362.095" stroke="#FB896B" stroke-width="0.7903" stroke-miterlimit="10"/>
<path d="M303.97 279.396V330.949" stroke="#FB896B" stroke-width="6.3222" stroke-miterlimit="10"/>
<path d="M282.902 279.396V412.085" stroke="#5046BB" stroke-width="0.7903" stroke-miterlimit="10"/>
<path d="M282.902 336.044V380.968" stroke="#5046BB" stroke-width="6.3222" stroke-miterlimit="10"/>
<path d="M261.853 310.542V443.231" stroke="#FB896B" stroke-width="0.7903" stroke-miterlimit="10"/>
<path d="M261.853 376.886V412.085" stroke="#FB896B" stroke-width="6.3222" stroke-miterlimit="10"/>
<path d="M240.806 292.161V424.85" stroke="#5046BB" stroke-width="0.7903" stroke-miterlimit="10"/>
<path d="M240.806 350.864V393.733" stroke="#5046BB" stroke-width="6.3222" stroke-miterlimit="10"/>
<path d="M219.739 279.396V412.085" stroke="#FB896B" stroke-width="0.7903" stroke-miterlimit="10"/>
<path d="M219.739 327.389V380.968" stroke="#FB896B" stroke-width="6.3222" stroke-miterlimit="10"/>
<path d="M198.69 312.105V444.794" stroke="#5046BB" stroke-width="0.7903" stroke-miterlimit="10"/>
<path d="M198.69 330.978V413.677" stroke="#5046BB" stroke-width="6.3222" stroke-miterlimit="10"/>
<path d="M177.642 256.904V389.592" stroke="#FB896B" stroke-width="0.7903" stroke-miterlimit="10"/>
<path d="M177.642 288.049V368.172" stroke="#FB896B" stroke-width="6.3222" stroke-miterlimit="10"/>
<path d="M156.574 202.313V335.002" stroke="#5046BB" stroke-width="0.7903" stroke-miterlimit="10"/>
<path d="M156.574 233.459V314.595" stroke="#5046BB" stroke-width="6.3222" stroke-miterlimit="10"/>
<path d="M135.526 224.774V357.463" stroke="#FB896B" stroke-width="0.7903" stroke-miterlimit="10"/>
<path d="M135.526 247.237V326.346" stroke="#FB896B" stroke-width="6.3222" stroke-miterlimit="10"/>
<path d="M114.479 197.246V329.935" stroke="#5046BB" stroke-width="0.7903" stroke-miterlimit="10"/>
<path d="M114.479 228.363V250.304" stroke="#5046BB" stroke-width="6.3222" stroke-miterlimit="10"/>
<path d="M93.4095 167.113V299.802" stroke="#FB896B" stroke-width="0.7903" stroke-miterlimit="10"/>
<path d="M93.4095 198.259V233.457" stroke="#FB896B" stroke-width="6.3222" stroke-miterlimit="10"/>
<path d="M72.1926 231.464V389.717" stroke="#5046BB" stroke-width="0.7903" stroke-miterlimit="10"/>
<path d="M72.1926 249.246V357.711" stroke="#5046BB" stroke-width="6.3222" stroke-miterlimit="10"/>
<path d="M51.637 320.372V453.73" stroke="#FB896B" stroke-width="0.7903" stroke-miterlimit="10"/>
<path d="M51.637 286.586V348.82" stroke="#FB896B" stroke-width="6.3222" stroke-miterlimit="10"/>
<path d="M30 313.258V444.839" stroke="#5046BB" stroke-width="0.7903" stroke-miterlimit="10"/>
<path d="M30 334.596V414.611" stroke="#5046BB" stroke-width="6.3222" stroke-miterlimit="10"/>
<path d="M39.684 497.362V505.702H38.316V499.99L35.772 505.702H34.824L32.268 499.99V505.702H30.9V497.362H32.376L35.304 503.902L38.22 497.362H39.684ZM41.026 502.366C41.026 501.702 41.162 501.114 41.434 500.602C41.714 500.09 42.09 499.694 42.562 499.414C43.042 499.126 43.57 498.982 44.146 498.982C44.666 498.982 45.118 499.086 45.502 499.294C45.894 499.494 46.206 499.746 46.438 500.05V499.09H47.818V505.702H46.438V504.718C46.206 505.03 45.89 505.29 45.49 505.498C45.09 505.706 44.634 505.81 44.122 505.81C43.554 505.81 43.034 505.666 42.562 505.378C42.09 505.082 41.714 504.674 41.434 504.154C41.162 503.626 41.026 503.03 41.026 502.366ZM46.438 502.39C46.438 501.934 46.342 501.538 46.15 501.202C45.966 500.866 45.722 500.61 45.418 500.434C45.114 500.258 44.786 500.17 44.434 500.17C44.082 500.17 43.754 500.258 43.45 500.434C43.146 500.602 42.898 500.854 42.706 501.19C42.522 501.518 42.43 501.91 42.43 502.366C42.43 502.822 42.522 503.222 42.706 503.566C42.898 503.91 43.146 504.174 43.45 504.358C43.762 504.534 44.09 504.622 44.434 504.622C44.786 504.622 45.114 504.534 45.418 504.358C45.722 504.182 45.966 503.926 46.15 503.59C46.342 503.246 46.438 502.846 46.438 502.39ZM50.9828 500.05C51.1828 499.714 51.4468 499.454 51.7748 499.27C52.1108 499.078 52.5068 498.982 52.9628 498.982V500.398H52.6148C52.0788 500.398 51.6708 500.534 51.3908 500.806C51.1188 501.078 50.9828 501.55 50.9828 502.222V505.702H49.6148V499.09H50.9828V500.05ZM56.9775 498.202V496.954H59.4735V505.702H58.0935V498.202H56.9775ZM61.1848 503.878V502.846L65.2168 497.062H66.8728V502.69H67.9888V503.878H66.8728V505.702H65.5288V503.878H61.1848ZM65.5888 498.454L62.7568 502.69H65.5888V498.454Z" fill="#A3ABBD"/>
<path d="M109.684 497.362V505.702H108.316V499.99L105.772 505.702H104.824L102.268 499.99V505.702H100.9V497.362H102.376L105.304 503.902L108.22 497.362H109.684ZM111.026 502.366C111.026 501.702 111.162 501.114 111.434 500.602C111.714 500.09 112.09 499.694 112.562 499.414C113.042 499.126 113.57 498.982 114.146 498.982C114.666 498.982 115.118 499.086 115.502 499.294C115.894 499.494 116.206 499.746 116.438 500.05V499.09H117.818V505.702H116.438V504.718C116.206 505.03 115.89 505.29 115.49 505.498C115.09 505.706 114.634 505.81 114.122 505.81C113.554 505.81 113.034 505.666 112.562 505.378C112.09 505.082 111.714 504.674 111.434 504.154C111.162 503.626 111.026 503.03 111.026 502.366ZM116.438 502.39C116.438 501.934 116.342 501.538 116.15 501.202C115.966 500.866 115.722 500.61 115.418 500.434C115.114 500.258 114.786 500.17 114.434 500.17C114.082 500.17 113.754 500.258 113.45 500.434C113.146 500.602 112.898 500.854 112.706 501.19C112.522 501.518 112.43 501.91 112.43 502.366C112.43 502.822 112.522 503.222 112.706 503.566C112.898 503.91 113.146 504.174 113.45 504.358C113.762 504.534 114.09 504.622 114.434 504.622C114.786 504.622 115.114 504.534 115.418 504.358C115.722 504.182 115.966 503.926 116.15 503.59C116.342 503.246 116.438 502.846 116.438 502.39ZM120.983 500.05C121.183 499.714 121.447 499.454 121.775 499.27C122.111 499.078 122.507 498.982 122.963 498.982V500.398H122.615C122.079 500.398 121.671 500.534 121.391 500.806C121.119 501.078 120.983 501.55 120.983 502.222V505.702H119.615V499.09H120.983V500.05ZM126.978 498.202V496.954H129.474V505.702H128.094V498.202H126.978ZM136.993 498.13H132.973V500.518C133.141 500.294 133.389 500.106 133.717 499.954C134.053 499.802 134.409 499.726 134.785 499.726C135.457 499.726 136.001 499.87 136.417 500.158C136.841 500.446 137.141 500.81 137.317 501.25C137.501 501.69 137.593 502.154 137.593 502.642C137.593 503.234 137.477 503.762 137.245 504.226C137.021 504.682 136.681 505.042 136.225 505.306C135.777 505.57 135.225 505.702 134.569 505.702C133.697 505.702 132.997 505.486 132.469 505.054C131.941 504.622 131.625 504.05 131.521 503.338H132.853C132.941 503.714 133.137 504.014 133.441 504.238C133.745 504.454 134.125 504.562 134.581 504.562C135.149 504.562 135.573 504.39 135.853 504.046C136.141 503.702 136.285 503.246 136.285 502.678C136.285 502.102 136.141 501.662 135.853 501.358C135.565 501.046 135.141 500.89 134.581 500.89C134.189 500.89 133.857 500.99 133.585 501.19C133.321 501.382 133.129 501.646 133.009 501.982H131.713V496.93H136.993V498.13Z" fill="#A3ABBD"/>
<path d="M179.684 497.362V505.702H178.316V499.99L175.772 505.702H174.824L172.268 499.99V505.702H170.9V497.362H172.376L175.304 503.902L178.22 497.362H179.684ZM181.026 502.366C181.026 501.702 181.162 501.114 181.434 500.602C181.714 500.09 182.09 499.694 182.562 499.414C183.042 499.126 183.57 498.982 184.146 498.982C184.666 498.982 185.118 499.086 185.502 499.294C185.894 499.494 186.206 499.746 186.438 500.05V499.09H187.818V505.702H186.438V504.718C186.206 505.03 185.89 505.29 185.49 505.498C185.09 505.706 184.634 505.81 184.122 505.81C183.554 505.81 183.034 505.666 182.562 505.378C182.09 505.082 181.714 504.674 181.434 504.154C181.162 503.626 181.026 503.03 181.026 502.366ZM186.438 502.39C186.438 501.934 186.342 501.538 186.15 501.202C185.966 500.866 185.722 500.61 185.418 500.434C185.114 500.258 184.786 500.17 184.434 500.17C184.082 500.17 183.754 500.258 183.45 500.434C183.146 500.602 182.898 500.854 182.706 501.19C182.522 501.518 182.43 501.91 182.43 502.366C182.43 502.822 182.522 503.222 182.706 503.566C182.898 503.91 183.146 504.174 183.45 504.358C183.762 504.534 184.09 504.622 184.434 504.622C184.786 504.622 185.114 504.534 185.418 504.358C185.722 504.182 185.966 503.926 186.15 503.59C186.342 503.246 186.438 502.846 186.438 502.39ZM190.983 500.05C191.183 499.714 191.447 499.454 191.775 499.27C192.111 499.078 192.507 498.982 192.963 498.982V500.398H192.615C192.079 500.398 191.671 500.534 191.391 500.806C191.119 501.078 190.983 501.55 190.983 502.222V505.702H189.615V499.09H190.983V500.05ZM196.978 498.202V496.954H199.474V505.702H198.094V498.202H196.978ZM206.057 498.982C205.969 498.614 205.809 498.338 205.577 498.154C205.345 497.97 205.021 497.878 204.605 497.878C203.973 497.878 203.501 498.122 203.189 498.61C202.877 499.09 202.713 499.89 202.697 501.01C202.905 500.658 203.209 500.386 203.609 500.194C204.009 500.002 204.441 499.906 204.905 499.906C205.433 499.906 205.897 500.022 206.297 500.254C206.705 500.478 207.021 500.806 207.245 501.238C207.477 501.67 207.593 502.186 207.593 502.786C207.593 503.346 207.481 503.846 207.257 504.286C207.041 504.726 206.717 505.074 206.285 505.33C205.853 505.578 205.333 505.702 204.725 505.702C203.901 505.702 203.253 505.522 202.781 505.162C202.317 504.794 201.989 504.278 201.797 503.614C201.613 502.95 201.521 502.122 201.521 501.13C201.521 498.202 202.553 496.738 204.617 496.738C205.417 496.738 206.045 496.954 206.501 497.386C206.965 497.818 207.237 498.35 207.317 498.982H206.057ZM204.605 501.058C204.117 501.058 203.701 501.206 203.357 501.502C203.021 501.79 202.853 502.21 202.853 502.762C202.853 503.314 203.009 503.754 203.321 504.082C203.641 504.402 204.085 504.562 204.653 504.562C205.157 504.562 205.553 504.406 205.841 504.094C206.137 503.782 206.285 503.366 206.285 502.846C206.285 502.302 206.141 501.87 205.853 501.55C205.573 501.222 205.157 501.058 204.605 501.058Z" fill="#A3ABBD"/>
<path d="M249.684 497.362V505.702H248.316V499.99L245.772 505.702H244.824L242.268 499.99V505.702H240.9V497.362H242.376L245.304 503.902L248.22 497.362H249.684ZM251.026 502.366C251.026 501.702 251.162 501.114 251.434 500.602C251.714 500.09 252.09 499.694 252.562 499.414C253.042 499.126 253.57 498.982 254.146 498.982C254.666 498.982 255.118 499.086 255.502 499.294C255.894 499.494 256.206 499.746 256.438 500.05V499.09H257.818V505.702H256.438V504.718C256.206 505.03 255.89 505.29 255.49 505.498C255.09 505.706 254.634 505.81 254.122 505.81C253.554 505.81 253.034 505.666 252.562 505.378C252.09 505.082 251.714 504.674 251.434 504.154C251.162 503.626 251.026 503.03 251.026 502.366ZM256.438 502.39C256.438 501.934 256.342 501.538 256.15 501.202C255.966 500.866 255.722 500.61 255.418 500.434C255.114 500.258 254.786 500.17 254.434 500.17C254.082 500.17 253.754 500.258 253.45 500.434C253.146 500.602 252.898 500.854 252.706 501.19C252.522 501.518 252.43 501.91 252.43 502.366C252.43 502.822 252.522 503.222 252.706 503.566C252.898 503.91 253.146 504.174 253.45 504.358C253.762 504.534 254.09 504.622 254.434 504.622C254.786 504.622 255.114 504.534 255.418 504.358C255.722 504.182 255.966 503.926 256.15 503.59C256.342 503.246 256.438 502.846 256.438 502.39ZM260.983 500.05C261.183 499.714 261.447 499.454 261.775 499.27C262.111 499.078 262.507 498.982 262.963 498.982V500.398H262.615C262.079 500.398 261.671 500.534 261.391 500.806C261.119 501.078 260.983 501.55 260.983 502.222V505.702H259.615V499.09H260.983V500.05ZM266.978 498.202V496.954H269.474V505.702H268.094V498.202H266.978ZM276.897 498.01L273.561 505.702H272.181L275.553 498.154H271.113V496.99H276.897V498.01Z" fill="#A3ABBD"/>
<path d="M318.684 497.362V505.702H317.316V499.99L314.772 505.702H313.824L311.268 499.99V505.702H309.9V497.362H311.376L314.304 503.902L317.22 497.362H318.684ZM320.026 502.366C320.026 501.702 320.162 501.114 320.434 500.602C320.714 500.09 321.09 499.694 321.562 499.414C322.042 499.126 322.57 498.982 323.146 498.982C323.666 498.982 324.118 499.086 324.502 499.294C324.894 499.494 325.206 499.746 325.438 500.05V499.09H326.818V505.702H325.438V504.718C325.206 505.03 324.89 505.29 324.49 505.498C324.09 505.706 323.634 505.81 323.122 505.81C322.554 505.81 322.034 505.666 321.562 505.378C321.09 505.082 320.714 504.674 320.434 504.154C320.162 503.626 320.026 503.03 320.026 502.366ZM325.438 502.39C325.438 501.934 325.342 501.538 325.15 501.202C324.966 500.866 324.722 500.61 324.418 500.434C324.114 500.258 323.786 500.17 323.434 500.17C323.082 500.17 322.754 500.258 322.45 500.434C322.146 500.602 321.898 500.854 321.706 501.19C321.522 501.518 321.43 501.91 321.43 502.366C321.43 502.822 321.522 503.222 321.706 503.566C321.898 503.91 322.146 504.174 322.45 504.358C322.762 504.534 323.09 504.622 323.434 504.622C323.786 504.622 324.114 504.534 324.418 504.358C324.722 504.182 324.966 503.926 325.15 503.59C325.342 503.246 325.438 502.846 325.438 502.39ZM329.983 500.05C330.183 499.714 330.447 499.454 330.775 499.27C331.111 499.078 331.507 498.982 331.963 498.982V500.398H331.615C331.079 500.398 330.671 500.534 330.391 500.806C330.119 501.078 329.983 501.55 329.983 502.222V505.702H328.615V499.09H329.983V500.05ZM335.978 498.202V496.954H338.474V505.702H337.094V498.202H335.978ZM341.829 501.13C340.997 500.714 340.581 500.058 340.581 499.162C340.581 498.73 340.689 498.334 340.905 497.974C341.121 497.614 341.445 497.33 341.877 497.122C342.309 496.906 342.837 496.798 343.461 496.798C344.077 496.798 344.601 496.906 345.033 497.122C345.473 497.33 345.801 497.614 346.017 497.974C346.233 498.334 346.341 498.73 346.341 499.162C346.341 499.61 346.225 500.006 345.993 500.35C345.769 500.686 345.469 500.946 345.093 501.13C345.549 501.298 345.909 501.574 346.173 501.958C346.437 502.334 346.569 502.778 346.569 503.29C346.569 503.81 346.437 504.27 346.173 504.67C345.909 505.07 345.541 505.378 345.069 505.594C344.597 505.81 344.061 505.918 343.461 505.918C342.861 505.918 342.325 505.81 341.853 505.594C341.389 505.378 341.025 505.07 340.761 504.67C340.497 504.27 340.365 503.81 340.365 503.29C340.365 502.77 340.497 502.322 340.761 501.946C341.025 501.57 341.381 501.298 341.829 501.13ZM345.033 499.33C345.033 498.882 344.893 498.538 344.613 498.298C344.333 498.058 343.949 497.938 343.461 497.938C342.981 497.938 342.601 498.058 342.321 498.298C342.041 498.538 341.901 498.886 341.901 499.342C341.901 499.742 342.045 500.07 342.333 500.326C342.629 500.574 343.005 500.698 343.461 500.698C343.917 500.698 344.293 500.57 344.589 500.314C344.885 500.058 345.033 499.73 345.033 499.33ZM343.461 501.73C342.933 501.73 342.501 501.862 342.165 502.126C341.837 502.382 341.673 502.754 341.673 503.242C341.673 503.698 341.833 504.07 342.153 504.358C342.473 504.638 342.909 504.778 343.461 504.778C344.005 504.778 344.433 504.634 344.745 504.346C345.065 504.058 345.225 503.69 345.225 503.242C345.225 502.762 345.061 502.39 344.733 502.126C344.413 501.862 343.989 501.73 343.461 501.73Z" fill="#5A5881"/>
<path d="M388.684 497.362V505.702H387.316V499.99L384.772 505.702H383.824L381.268 499.99V505.702H379.9V497.362H381.376L384.304 503.902L387.22 497.362H388.684ZM390.026 502.366C390.026 501.702 390.162 501.114 390.434 500.602C390.714 500.09 391.09 499.694 391.562 499.414C392.042 499.126 392.57 498.982 393.146 498.982C393.666 498.982 394.118 499.086 394.502 499.294C394.894 499.494 395.206 499.746 395.438 500.05V499.09H396.818V505.702H395.438V504.718C395.206 505.03 394.89 505.29 394.49 505.498C394.09 505.706 393.634 505.81 393.122 505.81C392.554 505.81 392.034 505.666 391.562 505.378C391.09 505.082 390.714 504.674 390.434 504.154C390.162 503.626 390.026 503.03 390.026 502.366ZM395.438 502.39C395.438 501.934 395.342 501.538 395.15 501.202C394.966 500.866 394.722 500.61 394.418 500.434C394.114 500.258 393.786 500.17 393.434 500.17C393.082 500.17 392.754 500.258 392.45 500.434C392.146 500.602 391.898 500.854 391.706 501.19C391.522 501.518 391.43 501.91 391.43 502.366C391.43 502.822 391.522 503.222 391.706 503.566C391.898 503.91 392.146 504.174 392.45 504.358C392.762 504.534 393.09 504.622 393.434 504.622C393.786 504.622 394.114 504.534 394.418 504.358C394.722 504.182 394.966 503.926 395.15 503.59C395.342 503.246 395.438 502.846 395.438 502.39ZM399.983 500.05C400.183 499.714 400.447 499.454 400.775 499.27C401.111 499.078 401.507 498.982 401.963 498.982V500.398H401.615C401.079 500.398 400.671 500.534 400.391 500.806C400.119 501.078 399.983 501.55 399.983 502.222V505.702H398.615V499.09H399.983V500.05ZM405.978 498.202V496.954H408.474V505.702H407.094V498.202H405.978ZM412.057 503.326C412.137 503.726 412.309 504.03 412.573 504.238C412.837 504.446 413.193 504.55 413.641 504.55C414.209 504.55 414.625 504.326 414.889 503.878C415.153 503.43 415.285 502.666 415.285 501.586C415.093 501.858 414.821 502.07 414.469 502.222C414.125 502.366 413.749 502.438 413.341 502.438C412.821 502.438 412.349 502.334 411.925 502.126C411.501 501.91 411.165 501.594 410.917 501.178C410.677 500.754 410.557 500.242 410.557 499.642C410.557 498.762 410.813 498.062 411.325 497.542C411.845 497.014 412.557 496.75 413.461 496.75C414.549 496.75 415.321 497.114 415.777 497.842C416.241 498.562 416.473 499.67 416.473 501.166C416.473 502.198 416.385 503.042 416.209 503.698C416.041 504.354 415.745 504.85 415.321 505.186C414.897 505.522 414.309 505.69 413.557 505.69C412.701 505.69 412.041 505.466 411.577 505.018C411.113 504.57 410.853 504.006 410.797 503.326H412.057ZM413.581 501.286C414.061 501.286 414.437 501.138 414.709 500.842C414.989 500.538 415.129 500.138 415.129 499.642C415.129 499.09 414.981 498.662 414.685 498.358C414.397 498.046 414.001 497.89 413.497 497.89C412.993 497.89 412.593 498.05 412.297 498.37C412.009 498.682 411.865 499.094 411.865 499.606C411.865 500.094 412.005 500.498 412.285 500.818C412.573 501.13 413.005 501.286 413.581 501.286Z" fill="#A3ABBD"/>
<path d="M458.684 497.362V505.702H457.316V499.99L454.772 505.702H453.824L451.268 499.99V505.702H449.9V497.362H451.376L454.304 503.902L457.22 497.362H458.684ZM460.026 502.366C460.026 501.702 460.162 501.114 460.434 500.602C460.714 500.09 461.09 499.694 461.562 499.414C462.042 499.126 462.57 498.982 463.146 498.982C463.666 498.982 464.118 499.086 464.502 499.294C464.894 499.494 465.206 499.746 465.438 500.05V499.09H466.818V505.702H465.438V504.718C465.206 505.03 464.89 505.29 464.49 505.498C464.09 505.706 463.634 505.81 463.122 505.81C462.554 505.81 462.034 505.666 461.562 505.378C461.09 505.082 460.714 504.674 460.434 504.154C460.162 503.626 460.026 503.03 460.026 502.366ZM465.438 502.39C465.438 501.934 465.342 501.538 465.15 501.202C464.966 500.866 464.722 500.61 464.418 500.434C464.114 500.258 463.786 500.17 463.434 500.17C463.082 500.17 462.754 500.258 462.45 500.434C462.146 500.602 461.898 500.854 461.706 501.19C461.522 501.518 461.43 501.91 461.43 502.366C461.43 502.822 461.522 503.222 461.706 503.566C461.898 503.91 462.146 504.174 462.45 504.358C462.762 504.534 463.09 504.622 463.434 504.622C463.786 504.622 464.114 504.534 464.418 504.358C464.722 504.182 464.966 503.926 465.15 503.59C465.342 503.246 465.438 502.846 465.438 502.39ZM469.983 500.05C470.183 499.714 470.447 499.454 470.775 499.27C471.111 499.078 471.507 498.982 471.963 498.982V500.398H471.615C471.079 500.398 470.671 500.534 470.391 500.806C470.119 501.078 469.983 501.55 469.983 502.222V505.702H468.615V499.09H469.983V500.05ZM476.914 503.842C477.682 503.178 478.286 502.634 478.726 502.21C479.174 501.778 479.546 501.33 479.842 500.866C480.138 500.402 480.286 499.938 480.286 499.474C480.286 498.994 480.17 498.618 479.938 498.346C479.714 498.074 479.358 497.938 478.87 497.938C478.398 497.938 478.03 498.09 477.766 498.394C477.51 498.69 477.374 499.09 477.358 499.594H476.038C476.062 498.682 476.334 497.986 476.854 497.506C477.382 497.018 478.05 496.774 478.858 496.774C479.73 496.774 480.41 497.014 480.898 497.494C481.394 497.974 481.642 498.614 481.642 499.414C481.642 499.99 481.494 500.546 481.198 501.082C480.91 501.61 480.562 502.086 480.154 502.51C479.754 502.926 479.242 503.41 478.618 503.962L478.078 504.442H481.882V505.582H476.05V504.586L476.914 503.842ZM483.083 501.214C483.083 499.83 483.315 498.75 483.779 497.974C484.251 497.19 485.059 496.798 486.203 496.798C487.347 496.798 488.151 497.19 488.615 497.974C489.087 498.75 489.323 499.83 489.323 501.214C489.323 502.614 489.087 503.71 488.615 504.502C488.151 505.286 487.347 505.678 486.203 505.678C485.059 505.678 484.251 505.286 483.779 504.502C483.315 503.71 483.083 502.614 483.083 501.214ZM487.979 501.214C487.979 500.566 487.935 500.018 487.847 499.57C487.767 499.122 487.599 498.758 487.343 498.478C487.087 498.19 486.707 498.046 486.203 498.046C485.699 498.046 485.319 498.19 485.063 498.478C484.807 498.758 484.635 499.122 484.547 499.57C484.467 500.018 484.427 500.566 484.427 501.214C484.427 501.886 484.467 502.45 484.547 502.906C484.627 503.362 484.795 503.73 485.051 504.01C485.315 504.29 485.699 504.43 486.203 504.43C486.707 504.43 487.087 504.29 487.343 504.01C487.607 503.73 487.779 503.362 487.859 502.906C487.939 502.45 487.979 501.886 487.979 501.214Z" fill="#A3ABBD"/>
<path d="M531.684 497.362V505.702H530.316V499.99L527.772 505.702H526.824L524.268 499.99V505.702H522.9V497.362H524.376L527.304 503.902L530.22 497.362H531.684ZM533.026 502.366C533.026 501.702 533.162 501.114 533.434 500.602C533.714 500.09 534.09 499.694 534.562 499.414C535.042 499.126 535.57 498.982 536.146 498.982C536.666 498.982 537.118 499.086 537.502 499.294C537.894 499.494 538.206 499.746 538.438 500.05V499.09H539.818V505.702H538.438V504.718C538.206 505.03 537.89 505.29 537.49 505.498C537.09 505.706 536.634 505.81 536.122 505.81C535.554 505.81 535.034 505.666 534.562 505.378C534.09 505.082 533.714 504.674 533.434 504.154C533.162 503.626 533.026 503.03 533.026 502.366ZM538.438 502.39C538.438 501.934 538.342 501.538 538.15 501.202C537.966 500.866 537.722 500.61 537.418 500.434C537.114 500.258 536.786 500.17 536.434 500.17C536.082 500.17 535.754 500.258 535.45 500.434C535.146 500.602 534.898 500.854 534.706 501.19C534.522 501.518 534.43 501.91 534.43 502.366C534.43 502.822 534.522 503.222 534.706 503.566C534.898 503.91 535.146 504.174 535.45 504.358C535.762 504.534 536.09 504.622 536.434 504.622C536.786 504.622 537.114 504.534 537.418 504.358C537.722 504.182 537.966 503.926 538.15 503.59C538.342 503.246 538.438 502.846 538.438 502.39ZM542.983 500.05C543.183 499.714 543.447 499.454 543.775 499.27C544.111 499.078 544.507 498.982 544.963 498.982V500.398H544.615C544.079 500.398 543.671 500.534 543.391 500.806C543.119 501.078 542.983 501.55 542.983 502.222V505.702H541.615V499.09H542.983V500.05ZM549.914 503.842C550.682 503.178 551.286 502.634 551.726 502.21C552.174 501.778 552.546 501.33 552.842 500.866C553.138 500.402 553.286 499.938 553.286 499.474C553.286 498.994 553.17 498.618 552.938 498.346C552.714 498.074 552.358 497.938 551.87 497.938C551.398 497.938 551.03 498.09 550.766 498.394C550.51 498.69 550.374 499.09 550.358 499.594H549.038C549.062 498.682 549.334 497.986 549.854 497.506C550.382 497.018 551.05 496.774 551.858 496.774C552.73 496.774 553.41 497.014 553.898 497.494C554.394 497.974 554.642 498.614 554.642 499.414C554.642 499.99 554.494 500.546 554.198 501.082C553.91 501.61 553.562 502.086 553.154 502.51C552.754 502.926 552.242 503.41 551.618 503.962L551.078 504.442H554.882V505.582H549.05V504.586L549.914 503.842ZM555.903 498.202V496.954H558.399V505.702H557.019V498.202H555.903Z" fill="#A3ABBD"/>
<path d="M601.684 497.362V505.702H600.316V499.99L597.772 505.702H596.824L594.268 499.99V505.702H592.9V497.362H594.376L597.304 503.902L600.22 497.362H601.684ZM603.026 502.366C603.026 501.702 603.162 501.114 603.434 500.602C603.714 500.09 604.09 499.694 604.562 499.414C605.042 499.126 605.57 498.982 606.146 498.982C606.666 498.982 607.118 499.086 607.502 499.294C607.894 499.494 608.206 499.746 608.438 500.05V499.09H609.818V505.702H608.438V504.718C608.206 505.03 607.89 505.29 607.49 505.498C607.09 505.706 606.634 505.81 606.122 505.81C605.554 505.81 605.034 505.666 604.562 505.378C604.09 505.082 603.714 504.674 603.434 504.154C603.162 503.626 603.026 503.03 603.026 502.366ZM608.438 502.39C608.438 501.934 608.342 501.538 608.15 501.202C607.966 500.866 607.722 500.61 607.418 500.434C607.114 500.258 606.786 500.17 606.434 500.17C606.082 500.17 605.754 500.258 605.45 500.434C605.146 500.602 604.898 500.854 604.706 501.19C604.522 501.518 604.43 501.91 604.43 502.366C604.43 502.822 604.522 503.222 604.706 503.566C604.898 503.91 605.146 504.174 605.45 504.358C605.762 504.534 606.09 504.622 606.434 504.622C606.786 504.622 607.114 504.534 607.418 504.358C607.722 504.182 607.966 503.926 608.15 503.59C608.342 503.246 608.438 502.846 608.438 502.39ZM612.983 500.05C613.183 499.714 613.447 499.454 613.775 499.27C614.111 499.078 614.507 498.982 614.963 498.982V500.398H614.615C614.079 500.398 613.671 500.534 613.391 500.806C613.119 501.078 612.983 501.55 612.983 502.222V505.702H611.615V499.09H612.983V500.05ZM619.914 503.842C620.682 503.178 621.286 502.634 621.726 502.21C622.174 501.778 622.546 501.33 622.842 500.866C623.138 500.402 623.286 499.938 623.286 499.474C623.286 498.994 623.17 498.618 622.938 498.346C622.714 498.074 622.358 497.938 621.87 497.938C621.398 497.938 621.03 498.09 620.766 498.394C620.51 498.69 620.374 499.09 620.358 499.594H619.038C619.062 498.682 619.334 497.986 619.854 497.506C620.382 497.018 621.05 496.774 621.858 496.774C622.73 496.774 623.41 497.014 623.898 497.494C624.394 497.974 624.642 498.614 624.642 499.414C624.642 499.99 624.494 500.546 624.198 501.082C623.91 501.61 623.562 502.086 623.154 502.51C622.754 502.926 622.242 503.41 621.618 503.962L621.078 504.442H624.882V505.582H619.05V504.586L619.914 503.842ZM626.839 503.842C627.607 503.178 628.211 502.634 628.651 502.21C629.099 501.778 629.471 501.33 629.767 500.866C630.063 500.402 630.211 499.938 630.211 499.474C630.211 498.994 630.095 498.618 629.863 498.346C629.639 498.074 629.283 497.938 628.795 497.938C628.323 497.938 627.955 498.09 627.691 498.394C627.435 498.69 627.299 499.09 627.283 499.594H625.963C625.987 498.682 626.259 497.986 626.779 497.506C627.307 497.018 627.975 496.774 628.783 496.774C629.655 496.774 630.335 497.014 630.823 497.494C631.319 497.974 631.567 498.614 631.567 499.414C631.567 499.99 631.419 500.546 631.123 501.082C630.835 501.61 630.487 502.086 630.079 502.51C629.679 502.926 629.167 503.41 628.543 503.962L628.003 504.442H631.807V505.582H625.975V504.586L626.839 503.842Z" fill="#A3ABBD"/>
<path d="M673.684 497.362V505.702H672.316V499.99L669.772 505.702H668.824L666.268 499.99V505.702H664.9V497.362H666.376L669.304 503.902L672.22 497.362H673.684ZM675.026 502.366C675.026 501.702 675.162 501.114 675.434 500.602C675.714 500.09 676.09 499.694 676.562 499.414C677.042 499.126 677.57 498.982 678.146 498.982C678.666 498.982 679.118 499.086 679.502 499.294C679.894 499.494 680.206 499.746 680.438 500.05V499.09H681.818V505.702H680.438V504.718C680.206 505.03 679.89 505.29 679.49 505.498C679.09 505.706 678.634 505.81 678.122 505.81C677.554 505.81 677.034 505.666 676.562 505.378C676.09 505.082 675.714 504.674 675.434 504.154C675.162 503.626 675.026 503.03 675.026 502.366ZM680.438 502.39C680.438 501.934 680.342 501.538 680.15 501.202C679.966 500.866 679.722 500.61 679.418 500.434C679.114 500.258 678.786 500.17 678.434 500.17C678.082 500.17 677.754 500.258 677.45 500.434C677.146 500.602 676.898 500.854 676.706 501.19C676.522 501.518 676.43 501.91 676.43 502.366C676.43 502.822 676.522 503.222 676.706 503.566C676.898 503.91 677.146 504.174 677.45 504.358C677.762 504.534 678.09 504.622 678.434 504.622C678.786 504.622 679.114 504.534 679.418 504.358C679.722 504.182 679.966 503.926 680.15 503.59C680.342 503.246 680.438 502.846 680.438 502.39ZM684.983 500.05C685.183 499.714 685.447 499.454 685.775 499.27C686.111 499.078 686.507 498.982 686.963 498.982V500.398H686.615C686.079 500.398 685.671 500.534 685.391 500.806C685.119 501.078 684.983 501.55 684.983 502.222V505.702H683.615V499.09H684.983V500.05ZM691.914 503.842C692.682 503.178 693.286 502.634 693.726 502.21C694.174 501.778 694.546 501.33 694.842 500.866C695.138 500.402 695.286 499.938 695.286 499.474C695.286 498.994 695.17 498.618 694.938 498.346C694.714 498.074 694.358 497.938 693.87 497.938C693.398 497.938 693.03 498.09 692.766 498.394C692.51 498.69 692.374 499.09 692.358 499.594H691.038C691.062 498.682 691.334 497.986 691.854 497.506C692.382 497.018 693.05 496.774 693.858 496.774C694.73 496.774 695.41 497.014 695.898 497.494C696.394 497.974 696.642 498.614 696.642 499.414C696.642 499.99 696.494 500.546 696.198 501.082C695.91 501.61 695.562 502.086 695.154 502.51C694.754 502.926 694.242 503.41 693.618 503.962L693.078 504.442H696.882V505.582H691.05V504.586L691.914 503.842ZM698.059 499.114C698.107 498.37 698.391 497.79 698.911 497.374C699.439 496.958 700.111 496.75 700.927 496.75C701.487 496.75 701.971 496.85 702.379 497.05C702.787 497.25 703.095 497.522 703.303 497.866C703.511 498.21 703.615 498.598 703.615 499.03C703.615 499.526 703.483 499.95 703.219 500.302C702.955 500.654 702.639 500.89 702.271 501.01V501.058C702.743 501.202 703.111 501.466 703.375 501.85C703.639 502.226 703.771 502.71 703.771 503.302C703.771 503.774 703.663 504.194 703.447 504.562C703.231 504.93 702.911 505.222 702.487 505.438C702.063 505.646 701.555 505.75 700.963 505.75C700.099 505.75 699.387 505.53 698.827 505.09C698.275 504.642 697.979 504.002 697.939 503.17H699.259C699.291 503.594 699.455 503.942 699.751 504.214C700.047 504.478 700.447 504.61 700.951 504.61C701.439 504.61 701.815 504.478 702.079 504.214C702.343 503.942 702.475 503.594 702.475 503.17C702.475 502.61 702.295 502.214 701.935 501.982C701.583 501.742 701.039 501.622 700.303 501.622H699.991V500.494H700.315C700.963 500.486 701.455 500.378 701.791 500.17C702.135 499.962 702.307 499.634 702.307 499.186C702.307 498.802 702.183 498.498 701.935 498.274C701.687 498.042 701.335 497.926 700.879 497.926C700.431 497.926 700.083 498.042 699.835 498.274C699.587 498.498 699.439 498.778 699.391 499.114H698.059Z" fill="#A3ABBD"/>
<g filter="url(#filter0_d_114_1940)">
<path d="M246 104.979C246 99.4559 250.477 94.9787 256 94.9787H349C354.523 94.9787 359 99.4559 359 104.979V183.183C359 188.604 354.68 193.038 349.26 193.179L327.582 193.744C323.588 193.848 320.039 196.319 318.557 200.029L305.857 231.81C305.187 233.487 302.813 233.487 302.143 231.81L289.448 200.042C287.963 196.325 284.405 193.852 280.404 193.756L255.759 193.161C250.331 193.03 246 188.593 246 183.164V104.979Z" fill="white"/>
</g>
<path d="M259.423 154.114V155.554H258.661V154.114H259.423ZM259.33 162.087V163.401H258.568V162.087H259.33ZM259.867 160.486C259.867 160.3 259.833 160.142 259.765 160.012C259.7 159.882 259.592 159.766 259.442 159.665C259.296 159.565 259.097 159.467 258.847 159.373C258.424 159.21 258.051 159.037 257.729 158.855C257.41 158.669 257.16 158.44 256.981 158.166C256.802 157.89 256.713 157.54 256.713 157.117C256.713 156.713 256.809 156.363 257.001 156.067C257.193 155.771 257.458 155.543 257.797 155.383C258.139 155.221 258.536 155.139 258.988 155.139C259.333 155.139 259.646 155.191 259.926 155.295C260.206 155.396 260.447 155.546 260.648 155.745C260.85 155.94 261.005 156.179 261.112 156.462C261.22 156.746 261.273 157.069 261.273 157.434H259.872C259.872 157.239 259.851 157.066 259.809 156.916C259.766 156.767 259.704 156.641 259.623 156.54C259.545 156.44 259.451 156.365 259.34 156.316C259.229 156.264 259.107 156.238 258.974 156.238C258.775 156.238 258.612 156.277 258.485 156.355C258.358 156.433 258.266 156.539 258.207 156.672C258.152 156.803 258.124 156.952 258.124 157.122C258.124 157.288 258.153 157.432 258.212 157.556C258.274 157.68 258.38 157.794 258.529 157.898C258.679 157.999 258.884 158.103 259.145 158.21C259.568 158.373 259.939 158.549 260.258 158.738C260.577 158.927 260.826 159.158 261.005 159.431C261.184 159.705 261.273 160.053 261.273 160.476C261.273 160.896 261.176 161.254 260.98 161.55C260.785 161.843 260.512 162.068 260.16 162.224C259.809 162.377 259.402 162.454 258.939 162.454C258.64 162.454 258.342 162.415 258.046 162.336C257.75 162.255 257.481 162.125 257.24 161.946C256.999 161.767 256.807 161.529 256.664 161.233C256.521 160.933 256.449 160.566 256.449 160.129H257.855C257.855 160.367 257.886 160.566 257.948 160.725C258.01 160.881 258.091 161.007 258.192 161.101C258.297 161.192 258.414 161.257 258.544 161.296C258.674 161.335 258.806 161.355 258.939 161.355C259.148 161.355 259.319 161.318 259.452 161.243C259.589 161.168 259.691 161.065 259.76 160.935C259.831 160.802 259.867 160.652 259.867 160.486ZM263.671 158.186H264.423C264.664 158.186 264.862 158.145 265.019 158.064C265.175 157.979 265.29 157.862 265.365 157.712C265.443 157.559 265.482 157.382 265.482 157.18C265.482 156.998 265.447 156.837 265.375 156.697C265.307 156.554 265.201 156.443 265.058 156.365C264.914 156.283 264.734 156.243 264.516 156.243C264.343 156.243 264.184 156.277 264.037 156.345C263.891 156.414 263.773 156.51 263.686 156.633C263.598 156.757 263.554 156.907 263.554 157.082H262.143C262.143 156.692 262.247 156.352 262.455 156.062C262.667 155.772 262.95 155.546 263.305 155.383C263.66 155.221 264.05 155.139 264.477 155.139C264.958 155.139 265.38 155.217 265.741 155.374C266.103 155.526 266.384 155.753 266.586 156.052C266.788 156.352 266.889 156.723 266.889 157.165C266.889 157.39 266.837 157.608 266.732 157.82C266.628 158.028 266.479 158.217 266.283 158.386C266.091 158.552 265.857 158.686 265.58 158.787C265.303 158.884 264.993 158.933 264.647 158.933H263.671V158.186ZM263.671 159.255V158.528H264.647C265.035 158.528 265.375 158.572 265.668 158.66C265.961 158.748 266.207 158.874 266.405 159.04C266.604 159.203 266.754 159.397 266.854 159.622C266.955 159.843 267.006 160.089 267.006 160.359C267.006 160.691 266.942 160.987 266.815 161.248C266.688 161.505 266.509 161.723 266.278 161.902C266.05 162.081 265.784 162.218 265.478 162.312C265.172 162.403 264.838 162.449 264.477 162.449C264.177 162.449 263.882 162.408 263.593 162.327C263.306 162.242 263.046 162.117 262.812 161.951C262.58 161.781 262.395 161.57 262.255 161.316C262.118 161.059 262.05 160.754 262.05 160.403H263.461C263.461 160.585 263.507 160.748 263.598 160.891C263.689 161.034 263.814 161.147 263.974 161.228C264.136 161.309 264.317 161.35 264.516 161.35C264.74 161.35 264.932 161.309 265.092 161.228C265.255 161.143 265.378 161.026 265.463 160.876C265.551 160.723 265.595 160.546 265.595 160.344C265.595 160.084 265.548 159.875 265.453 159.719C265.359 159.56 265.224 159.443 265.048 159.368C264.872 159.293 264.664 159.255 264.423 159.255H263.671ZM272.758 158.171V159.402C272.758 159.936 272.701 160.396 272.587 160.784C272.473 161.168 272.309 161.484 272.094 161.731C271.882 161.975 271.63 162.156 271.337 162.273C271.044 162.39 270.718 162.449 270.36 162.449C270.074 162.449 269.807 162.413 269.56 162.341C269.312 162.266 269.089 162.151 268.891 161.995C268.695 161.838 268.526 161.641 268.383 161.404C268.243 161.163 268.135 160.876 268.061 160.544C267.986 160.212 267.948 159.832 267.948 159.402V158.171C267.948 157.638 268.005 157.18 268.119 156.799C268.236 156.415 268.401 156.101 268.612 155.857C268.827 155.613 269.081 155.434 269.374 155.32C269.667 155.203 269.993 155.144 270.351 155.144C270.637 155.144 270.902 155.181 271.146 155.256C271.394 155.328 271.617 155.44 271.815 155.593C272.014 155.746 272.183 155.943 272.323 156.184C272.463 156.422 272.571 156.707 272.646 157.039C272.72 157.367 272.758 157.745 272.758 158.171ZM271.347 159.587V157.981C271.347 157.724 271.332 157.499 271.303 157.307C271.277 157.115 271.236 156.952 271.181 156.819C271.125 156.682 271.057 156.571 270.976 156.487C270.894 156.402 270.801 156.34 270.697 156.301C270.593 156.262 270.478 156.243 270.351 156.243C270.191 156.243 270.049 156.274 269.926 156.335C269.805 156.397 269.703 156.497 269.618 156.633C269.534 156.767 269.468 156.946 269.423 157.17C269.381 157.392 269.359 157.662 269.359 157.981V159.587C269.359 159.845 269.372 160.071 269.398 160.266C269.428 160.461 269.47 160.629 269.525 160.769C269.584 160.906 269.652 161.018 269.73 161.106C269.812 161.191 269.905 161.252 270.009 161.291C270.116 161.331 270.233 161.35 270.36 161.35C270.517 161.35 270.655 161.319 270.775 161.257C270.899 161.192 271.003 161.091 271.088 160.955C271.176 160.815 271.241 160.632 271.283 160.408C271.326 160.183 271.347 159.91 271.347 159.587ZM278.5 158.171V159.402C278.5 159.936 278.443 160.396 278.329 160.784C278.215 161.168 278.051 161.484 277.836 161.731C277.624 161.975 277.372 162.156 277.079 162.273C276.786 162.39 276.461 162.449 276.103 162.449C275.816 162.449 275.549 162.413 275.302 162.341C275.054 162.266 274.831 162.151 274.633 161.995C274.438 161.838 274.268 161.641 274.125 161.404C273.985 161.163 273.878 160.876 273.803 160.544C273.728 160.212 273.69 159.832 273.69 159.402V158.171C273.69 157.638 273.747 157.18 273.861 156.799C273.979 156.415 274.143 156.101 274.354 155.857C274.569 155.613 274.823 155.434 275.116 155.32C275.409 155.203 275.735 155.144 276.093 155.144C276.379 155.144 276.645 155.181 276.889 155.256C277.136 155.328 277.359 155.44 277.558 155.593C277.756 155.746 277.925 155.943 278.065 156.184C278.205 156.422 278.313 156.707 278.388 157.039C278.463 157.367 278.5 157.745 278.5 158.171ZM277.089 159.587V157.981C277.089 157.724 277.074 157.499 277.045 157.307C277.019 157.115 276.978 156.952 276.923 156.819C276.868 156.682 276.799 156.571 276.718 156.487C276.636 156.402 276.544 156.34 276.439 156.301C276.335 156.262 276.22 156.243 276.093 156.243C275.933 156.243 275.792 156.274 275.668 156.335C275.548 156.397 275.445 156.497 275.36 156.633C275.276 156.767 275.211 156.946 275.165 157.17C275.123 157.392 275.102 157.662 275.102 157.981V159.587C275.102 159.845 275.115 160.071 275.141 160.266C275.17 160.461 275.212 160.629 275.268 160.769C275.326 160.906 275.395 161.018 275.473 161.106C275.554 161.191 275.647 161.252 275.751 161.291C275.858 161.331 275.976 161.35 276.103 161.35C276.259 161.35 276.397 161.319 276.518 161.257C276.641 161.192 276.745 161.091 276.83 160.955C276.918 160.815 276.983 160.632 277.025 160.408C277.068 160.183 277.089 159.91 277.089 159.587ZM284.242 158.171V159.402C284.242 159.936 284.185 160.396 284.071 160.784C283.957 161.168 283.793 161.484 283.578 161.731C283.367 161.975 283.114 162.156 282.821 162.273C282.528 162.39 282.203 162.449 281.845 162.449C281.558 162.449 281.291 162.413 281.044 162.341C280.797 162.266 280.574 162.151 280.375 161.995C280.18 161.838 280.01 161.641 279.867 161.404C279.727 161.163 279.62 160.876 279.545 160.544C279.47 160.212 279.433 159.832 279.433 159.402V158.171C279.433 157.638 279.49 157.18 279.604 156.799C279.721 156.415 279.885 156.101 280.097 155.857C280.312 155.613 280.565 155.434 280.858 155.32C281.151 155.203 281.477 155.144 281.835 155.144C282.121 155.144 282.387 155.181 282.631 155.256C282.878 155.328 283.101 155.44 283.3 155.593C283.498 155.746 283.668 155.943 283.808 156.184C283.948 156.422 284.055 156.707 284.13 157.039C284.205 157.367 284.242 157.745 284.242 158.171ZM282.831 159.587V157.981C282.831 157.724 282.816 157.499 282.787 157.307C282.761 157.115 282.72 156.952 282.665 156.819C282.61 156.682 282.541 156.571 282.46 156.487C282.379 156.402 282.286 156.34 282.182 156.301C282.077 156.262 281.962 156.243 281.835 156.243C281.675 156.243 281.534 156.274 281.41 156.335C281.29 156.397 281.187 156.497 281.103 156.633C281.018 156.767 280.953 156.946 280.907 157.17C280.865 157.392 280.844 157.662 280.844 157.981V159.587C280.844 159.845 280.857 160.071 280.883 160.266C280.912 160.461 280.954 160.629 281.01 160.769C281.068 160.906 281.137 161.018 281.215 161.106C281.296 161.191 281.389 161.252 281.493 161.291C281.601 161.331 281.718 161.35 281.845 161.35C282.001 161.35 282.139 161.319 282.26 161.257C282.383 161.192 282.488 161.091 282.572 160.955C282.66 160.815 282.725 160.632 282.768 160.408C282.81 160.183 282.831 159.91 282.831 159.587ZM288.031 158.748V159.851H285.272V158.748H288.031ZM294.125 159.695V160.798H289.003L288.935 159.944L291.898 155.242H293.017L291.806 157.268L290.331 159.695H294.125ZM293.319 155.242V162.351H291.913V155.242H293.319ZM299.672 158.171V159.402C299.672 159.936 299.615 160.396 299.501 160.784C299.387 161.168 299.223 161.484 299.008 161.731C298.796 161.975 298.544 162.156 298.251 162.273C297.958 162.39 297.632 162.449 297.274 162.449C296.988 162.449 296.721 162.413 296.474 162.341C296.226 162.266 296.003 162.151 295.805 161.995C295.609 161.838 295.44 161.641 295.297 161.404C295.157 161.163 295.049 160.876 294.975 160.544C294.9 160.212 294.862 159.832 294.862 159.402V158.171C294.862 157.638 294.919 157.18 295.033 156.799C295.15 156.415 295.315 156.101 295.526 155.857C295.741 155.613 295.995 155.434 296.288 155.32C296.581 155.203 296.907 155.144 297.265 155.144C297.551 155.144 297.816 155.181 298.061 155.256C298.308 155.328 298.531 155.44 298.729 155.593C298.928 155.746 299.097 155.943 299.237 156.184C299.377 156.422 299.485 156.707 299.56 157.039C299.634 157.367 299.672 157.745 299.672 158.171ZM298.261 159.587V157.981C298.261 157.724 298.246 157.499 298.217 157.307C298.191 157.115 298.15 156.952 298.095 156.819C298.039 156.682 297.971 156.571 297.89 156.487C297.808 156.402 297.715 156.34 297.611 156.301C297.507 156.262 297.392 156.243 297.265 156.243C297.105 156.243 296.964 156.274 296.84 156.335C296.719 156.397 296.617 156.497 296.532 156.633C296.448 156.767 296.382 156.946 296.337 157.17C296.295 157.392 296.273 157.662 296.273 157.981V159.587C296.273 159.845 296.286 160.071 296.312 160.266C296.342 160.461 296.384 160.629 296.439 160.769C296.498 160.906 296.566 161.018 296.645 161.106C296.726 161.191 296.819 161.252 296.923 161.291C297.03 161.331 297.147 161.35 297.274 161.35C297.431 161.35 297.569 161.319 297.689 161.257C297.813 161.192 297.917 161.091 298.002 160.955C298.09 160.815 298.155 160.632 298.197 160.408C298.24 160.183 298.261 159.91 298.261 159.587ZM305.414 158.171V159.402C305.414 159.936 305.357 160.396 305.243 160.784C305.129 161.168 304.965 161.484 304.75 161.731C304.538 161.975 304.286 162.156 303.993 162.273C303.7 162.39 303.375 162.449 303.017 162.449C302.73 162.449 302.463 162.413 302.216 162.341C301.968 162.266 301.745 162.151 301.547 161.995C301.352 161.838 301.182 161.641 301.039 161.404C300.899 161.163 300.792 160.876 300.717 160.544C300.642 160.212 300.604 159.832 300.604 159.402V158.171C300.604 157.638 300.661 157.18 300.775 156.799C300.893 156.415 301.057 156.101 301.269 155.857C301.483 155.613 301.737 155.434 302.03 155.32C302.323 155.203 302.649 155.144 303.007 155.144C303.293 155.144 303.559 155.181 303.803 155.256C304.05 155.328 304.273 155.44 304.472 155.593C304.67 155.746 304.84 155.943 304.979 156.184C305.119 156.422 305.227 156.707 305.302 157.039C305.377 157.367 305.414 157.745 305.414 158.171ZM304.003 159.587V157.981C304.003 157.724 303.988 157.499 303.959 157.307C303.933 157.115 303.892 156.952 303.837 156.819C303.782 156.682 303.713 156.571 303.632 156.487C303.55 156.402 303.458 156.34 303.354 156.301C303.249 156.262 303.134 156.243 303.007 156.243C302.847 156.243 302.706 156.274 302.582 156.335C302.462 156.397 302.359 156.497 302.274 156.633C302.19 156.767 302.125 156.946 302.079 157.17C302.037 157.392 302.016 157.662 302.016 157.981V159.587C302.016 159.845 302.029 160.071 302.055 160.266C302.084 160.461 302.126 160.629 302.182 160.769C302.24 160.906 302.309 161.018 302.387 161.106C302.468 161.191 302.561 161.252 302.665 161.291C302.772 161.331 302.89 161.35 303.017 161.35C303.173 161.35 303.311 161.319 303.432 161.257C303.555 161.192 303.66 161.091 303.744 160.955C303.832 160.815 303.897 160.632 303.939 160.408C303.982 160.183 304.003 159.91 304.003 159.587ZM311.156 158.171V159.402C311.156 159.936 311.099 160.396 310.985 160.784C310.871 161.168 310.707 161.484 310.492 161.731C310.281 161.975 310.028 162.156 309.735 162.273C309.442 162.39 309.117 162.449 308.759 162.449C308.472 162.449 308.205 162.413 307.958 162.341C307.711 162.266 307.488 162.151 307.289 161.995C307.094 161.838 306.924 161.641 306.781 161.404C306.641 161.163 306.534 160.876 306.459 160.544C306.384 160.212 306.347 159.832 306.347 159.402V158.171C306.347 157.638 306.404 157.18 306.518 156.799C306.635 156.415 306.799 156.101 307.011 155.857C307.226 155.613 307.479 155.434 307.772 155.32C308.065 155.203 308.391 155.144 308.749 155.144C309.035 155.144 309.301 155.181 309.545 155.256C309.792 155.328 310.015 155.44 310.214 155.593C310.412 155.746 310.582 155.943 310.722 156.184C310.862 156.422 310.969 156.707 311.044 157.039C311.119 157.367 311.156 157.745 311.156 158.171ZM309.745 159.587V157.981C309.745 157.724 309.73 157.499 309.701 157.307C309.675 157.115 309.634 156.952 309.579 156.819C309.524 156.682 309.455 156.571 309.374 156.487C309.293 156.402 309.2 156.34 309.096 156.301C308.992 156.262 308.876 156.243 308.749 156.243C308.59 156.243 308.448 156.274 308.324 156.335C308.204 156.397 308.101 156.497 308.017 156.633C307.932 156.767 307.867 156.946 307.821 157.17C307.779 157.392 307.758 157.662 307.758 157.981V159.587C307.758 159.845 307.771 160.071 307.797 160.266C307.826 160.461 307.868 160.629 307.924 160.769C307.982 160.906 308.051 161.018 308.129 161.106C308.21 161.191 308.303 161.252 308.407 161.291C308.515 161.331 308.632 161.35 308.759 161.35C308.915 161.35 309.053 161.319 309.174 161.257C309.298 161.192 309.402 161.091 309.486 160.955C309.574 160.815 309.639 160.632 309.682 160.408C309.724 160.183 309.745 159.91 309.745 159.587ZM316.024 158.352H316.669C316.985 158.352 317.245 158.3 317.45 158.196C317.659 158.088 317.813 157.943 317.914 157.761C318.018 157.576 318.07 157.367 318.07 157.136C318.07 156.863 318.025 156.633 317.934 156.448C317.842 156.262 317.706 156.122 317.523 156.028C317.341 155.933 317.11 155.886 316.83 155.886C316.576 155.886 316.352 155.937 316.156 156.038C315.964 156.135 315.813 156.275 315.702 156.457C315.595 156.64 315.541 156.855 315.541 157.102H314.638C314.638 156.741 314.729 156.412 314.911 156.116C315.093 155.819 315.349 155.583 315.678 155.408C316.01 155.232 316.394 155.144 316.83 155.144C317.26 155.144 317.636 155.221 317.958 155.374C318.28 155.523 318.531 155.748 318.71 156.047C318.889 156.344 318.979 156.713 318.979 157.156C318.979 157.335 318.936 157.527 318.852 157.732C318.77 157.934 318.642 158.123 318.466 158.298C318.293 158.474 318.069 158.619 317.792 158.733C317.515 158.844 317.183 158.899 316.796 158.899H316.024V158.352ZM316.024 159.094V158.552H316.796C317.248 158.552 317.623 158.606 317.919 158.713C318.215 158.821 318.448 158.964 318.617 159.143C318.79 159.322 318.91 159.519 318.979 159.734C319.05 159.945 319.086 160.157 319.086 160.369C319.086 160.701 319.029 160.995 318.915 161.252C318.804 161.51 318.646 161.728 318.441 161.907C318.24 162.086 318.002 162.221 317.729 162.312C317.455 162.403 317.157 162.449 316.835 162.449C316.526 162.449 316.234 162.405 315.961 162.317C315.691 162.229 315.451 162.102 315.243 161.936C315.035 161.767 314.872 161.56 314.755 161.316C314.638 161.068 314.579 160.787 314.579 160.471H315.482C315.482 160.719 315.536 160.935 315.644 161.121C315.754 161.306 315.91 161.451 316.112 161.555C316.317 161.656 316.558 161.707 316.835 161.707C317.112 161.707 317.349 161.659 317.548 161.565C317.75 161.467 317.904 161.321 318.012 161.125C318.122 160.93 318.178 160.684 318.178 160.388C318.178 160.092 318.116 159.849 317.992 159.661C317.868 159.469 317.693 159.327 317.465 159.236C317.24 159.141 316.975 159.094 316.669 159.094H316.024ZM320.39 161.873C320.39 161.72 320.437 161.591 320.531 161.487C320.629 161.379 320.769 161.326 320.951 161.326C321.133 161.326 321.272 161.379 321.366 161.487C321.464 161.591 321.513 161.72 321.513 161.873C321.513 162.022 321.464 162.149 321.366 162.253C321.272 162.358 321.133 162.41 320.951 162.41C320.769 162.41 320.629 162.358 320.531 162.253C320.437 162.149 320.39 162.022 320.39 161.873ZM320.395 157.561C320.395 157.408 320.442 157.279 320.536 157.175C320.634 157.068 320.774 157.014 320.956 157.014C321.138 157.014 321.277 157.068 321.371 157.175C321.469 157.279 321.518 157.408 321.518 157.561C321.518 157.711 321.469 157.838 321.371 157.942C321.277 158.046 321.138 158.098 320.956 158.098C320.774 158.098 320.634 158.046 320.536 157.942C320.442 157.838 320.395 157.711 320.395 157.561ZM327.216 158.23V159.314C327.216 159.897 327.164 160.388 327.06 160.789C326.955 161.189 326.806 161.511 326.61 161.755C326.415 161.999 326.179 162.177 325.902 162.288C325.629 162.395 325.32 162.449 324.975 162.449C324.701 162.449 324.449 162.415 324.218 162.346C323.987 162.278 323.778 162.169 323.593 162.019C323.41 161.866 323.254 161.667 323.124 161.423C322.994 161.179 322.895 160.883 322.826 160.535C322.758 160.186 322.724 159.779 322.724 159.314V158.23C322.724 157.647 322.776 157.159 322.88 156.765C322.987 156.371 323.139 156.055 323.334 155.818C323.529 155.577 323.764 155.404 324.037 155.3C324.314 155.196 324.623 155.144 324.965 155.144C325.242 155.144 325.495 155.178 325.727 155.247C325.961 155.312 326.169 155.417 326.352 155.564C326.534 155.707 326.688 155.899 326.815 156.14C326.946 156.378 327.045 156.669 327.113 157.014C327.182 157.359 327.216 157.764 327.216 158.23ZM326.308 159.46V158.079C326.308 157.76 326.288 157.48 326.249 157.239C326.213 156.995 326.16 156.786 326.088 156.614C326.016 156.441 325.925 156.301 325.814 156.194C325.707 156.086 325.582 156.008 325.438 155.959C325.299 155.907 325.141 155.881 324.965 155.881C324.75 155.881 324.56 155.922 324.394 156.003C324.228 156.082 324.088 156.207 323.974 156.379C323.863 156.552 323.778 156.778 323.72 157.058C323.661 157.338 323.632 157.678 323.632 158.079V159.46C323.632 159.779 323.65 160.061 323.686 160.305C323.725 160.549 323.782 160.761 323.856 160.94C323.931 161.116 324.022 161.261 324.13 161.374C324.237 161.488 324.361 161.573 324.501 161.628C324.644 161.68 324.802 161.707 324.975 161.707C325.196 161.707 325.39 161.664 325.556 161.58C325.722 161.495 325.86 161.363 325.971 161.184C326.085 161.002 326.169 160.769 326.225 160.486C326.28 160.199 326.308 159.858 326.308 159.46ZM332.841 158.23V159.314C332.841 159.897 332.789 160.388 332.685 160.789C332.58 161.189 332.431 161.511 332.235 161.755C332.04 161.999 331.804 162.177 331.527 162.288C331.254 162.395 330.945 162.449 330.6 162.449C330.326 162.449 330.074 162.415 329.843 162.346C329.612 162.278 329.403 162.169 329.218 162.019C329.035 161.866 328.879 161.667 328.749 161.423C328.619 161.179 328.52 160.883 328.451 160.535C328.383 160.186 328.349 159.779 328.349 159.314V158.23C328.349 157.647 328.401 157.159 328.505 156.765C328.612 156.371 328.764 156.055 328.959 155.818C329.154 155.577 329.389 155.404 329.662 155.3C329.939 155.196 330.248 155.144 330.59 155.144C330.867 155.144 331.12 155.178 331.352 155.247C331.586 155.312 331.794 155.417 331.977 155.564C332.159 155.707 332.313 155.899 332.44 156.14C332.571 156.378 332.67 156.669 332.738 157.014C332.807 157.359 332.841 157.764 332.841 158.23ZM331.933 159.46V158.079C331.933 157.76 331.913 157.48 331.874 157.239C331.838 156.995 331.785 156.786 331.713 156.614C331.641 156.441 331.55 156.301 331.439 156.194C331.332 156.086 331.207 156.008 331.063 155.959C330.924 155.907 330.766 155.881 330.59 155.881C330.375 155.881 330.185 155.922 330.019 156.003C329.853 156.082 329.713 156.207 329.599 156.379C329.488 156.552 329.403 156.778 329.345 157.058C329.286 157.338 329.257 157.678 329.257 158.079V159.46C329.257 159.779 329.275 160.061 329.311 160.305C329.35 160.549 329.407 160.761 329.481 160.94C329.556 161.116 329.647 161.261 329.755 161.374C329.862 161.488 329.986 161.573 330.126 161.628C330.269 161.68 330.427 161.707 330.6 161.707C330.821 161.707 331.015 161.664 331.181 161.58C331.347 161.495 331.485 161.363 331.596 161.184C331.71 161.002 331.794 160.769 331.85 160.486C331.905 160.199 331.933 159.858 331.933 159.46ZM336.859 159.563H334.96V158.796H336.859C337.227 158.796 337.525 158.738 337.753 158.621C337.981 158.503 338.147 158.341 338.251 158.132C338.358 157.924 338.412 157.686 338.412 157.419C338.412 157.175 338.358 156.946 338.251 156.731C338.147 156.516 337.981 156.344 337.753 156.213C337.525 156.08 337.227 156.013 336.859 156.013H335.18V162.351H334.237V155.242H336.859C337.396 155.242 337.851 155.334 338.222 155.52C338.593 155.706 338.874 155.963 339.066 156.291C339.258 156.617 339.354 156.99 339.354 157.41C339.354 157.865 339.258 158.254 339.066 158.577C338.874 158.899 338.593 159.145 338.222 159.314C337.851 159.48 337.396 159.563 336.859 159.563ZM340.844 155.242H341.757L344.086 161.038L346.41 155.242H347.328L344.438 162.351H343.725L340.844 155.242ZM340.546 155.242H341.352L341.483 159.578V162.351H340.546V155.242ZM346.815 155.242H347.621V162.351H346.684V159.578L346.815 155.242Z" fill="#5A5881"/>
<path d="M272.102 121.032H269.91L269.898 119.825H271.738C272.062 119.825 272.328 119.784 272.535 119.702C272.742 119.616 272.896 119.493 272.998 119.333C273.104 119.169 273.156 118.97 273.156 118.736C273.156 118.47 273.105 118.255 273.004 118.091C272.906 117.927 272.752 117.808 272.541 117.734C272.334 117.659 272.066 117.622 271.738 117.622H270.52V124.777H268.762V116.245H271.738C272.234 116.245 272.678 116.292 273.068 116.386C273.463 116.48 273.797 116.622 274.07 116.814C274.344 117.005 274.553 117.247 274.697 117.54C274.842 117.829 274.914 118.173 274.914 118.572C274.914 118.923 274.834 119.247 274.674 119.544C274.518 119.841 274.27 120.083 273.93 120.271C273.594 120.458 273.154 120.562 272.611 120.581L272.102 121.032ZM272.025 124.777H269.43L270.115 123.405H272.025C272.334 123.405 272.586 123.357 272.781 123.259C272.977 123.157 273.121 123.021 273.215 122.849C273.309 122.677 273.355 122.48 273.355 122.257C273.355 122.007 273.312 121.79 273.227 121.607C273.145 121.423 273.012 121.282 272.828 121.185C272.645 121.083 272.402 121.032 272.102 121.032H270.408L270.42 119.825H272.529L272.934 120.3C273.453 120.292 273.871 120.384 274.188 120.575C274.508 120.763 274.74 121.007 274.885 121.308C275.033 121.609 275.107 121.931 275.107 122.275C275.107 122.822 274.988 123.282 274.75 123.657C274.512 124.029 274.162 124.308 273.701 124.495C273.244 124.683 272.686 124.777 272.025 124.777ZM280.07 123.259V118.437H281.758V124.777H280.17L280.07 123.259ZM280.258 121.958L280.756 121.947C280.756 122.368 280.707 122.761 280.609 123.124C280.512 123.484 280.365 123.796 280.17 124.062C279.975 124.323 279.729 124.529 279.432 124.677C279.135 124.822 278.785 124.894 278.383 124.894C278.074 124.894 277.789 124.851 277.527 124.765C277.27 124.675 277.047 124.536 276.859 124.349C276.676 124.157 276.531 123.913 276.426 123.616C276.324 123.316 276.273 122.954 276.273 122.532V118.437H277.961V122.544C277.961 122.732 277.982 122.89 278.025 123.019C278.072 123.148 278.137 123.253 278.219 123.335C278.301 123.417 278.396 123.476 278.506 123.511C278.619 123.546 278.744 123.564 278.881 123.564C279.229 123.564 279.502 123.493 279.701 123.353C279.904 123.212 280.047 123.021 280.129 122.779C280.215 122.532 280.258 122.259 280.258 121.958ZM284.928 124.062L286.609 118.437H288.42L285.871 125.732C285.816 125.892 285.742 126.064 285.648 126.247C285.559 126.431 285.436 126.605 285.279 126.769C285.127 126.937 284.934 127.073 284.699 127.179C284.469 127.284 284.186 127.337 283.85 127.337C283.689 127.337 283.559 127.327 283.457 127.308C283.355 127.288 283.234 127.261 283.094 127.226V125.989C283.137 125.989 283.182 125.989 283.229 125.989C283.275 125.993 283.32 125.995 283.363 125.995C283.586 125.995 283.768 125.97 283.908 125.919C284.049 125.868 284.162 125.79 284.248 125.685C284.334 125.583 284.402 125.45 284.453 125.286L284.928 124.062ZM284.225 118.437L285.602 123.03L285.842 124.818L284.693 124.941L282.414 118.437H284.225Z" fill="#5A5881"/>
<ellipse cx="260" cy="127.628" rx="3" ry="5.93617" fill="#FB8A6C"/>
<defs>
<filter id="filter0_d_114_1940" x="201" y="69.9787" width="203" height="228.089" filterUnits="userSpaceOnUse" color-interpolation-filters="sRGB">
<feFlood flood-opacity="0" result="BackgroundImageFix"/>
<feColorMatrix in="SourceAlpha" type="matrix" values="0 0 0 0 0 0 0 0 0 0 0 0 0 0 0 0 0 0 127 0" result="hardAlpha"/>
<feOffset dy="20"/>
<feGaussianBlur stdDeviation="22.5"/>
<feComposite in2="hardAlpha" operator="out"/>
<feColorMatrix type="matrix" values="0 0 0 0 0.939479 0 0 0 0 0.930417 0 0 0 0 0.966667 0 0 0 1 0"/>
<feBlend mode="normal" in2="BackgroundImageFix" result="effect1_dropShadow_114_1940"/>
<feBlend mode="normal" in="SourceGraphic" in2="effect1_dropShadow_114_1940" result="shape"/>
</filter>
</defs>
</svg>
